Data Science Homework 3
================
Laura Lynch
10/06/2019

Problem 1

``` r
library(p8105.datasets)
data("instacart")

instacart
```

    ## # A tibble: 1,384,617 x 15
    ##    order_id product_id add_to_cart_ord… reordered user_id eval_set
    ##       <int>      <int>            <int>     <int>   <int> <chr>   
    ##  1        1      49302                1         1  112108 train   
    ##  2        1      11109                2         1  112108 train   
    ##  3        1      10246                3         0  112108 train   
    ##  4        1      49683                4         0  112108 train   
    ##  5        1      43633                5         1  112108 train   
    ##  6        1      13176                6         0  112108 train   
    ##  7        1      47209                7         0  112108 train   
    ##  8        1      22035                8         1  112108 train   
    ##  9       36      39612                1         0   79431 train   
    ## 10       36      19660                2         1   79431 train   
    ## # … with 1,384,607 more rows, and 9 more variables: order_number <int>,
    ## #   order_dow <int>, order_hour_of_day <int>,
    ## #   days_since_prior_order <int>, product_name <chr>, aisle_id <int>,
    ## #   department_id <int>, aisle <chr>, department <chr>
…
mutate(order\_dow = day.name\[order\_dow\]) %&gt;%
==================================================

Problem 2

``` r
library(p8105.datasets)
data("brfss_smart2010")

brfss_smart2010 
```

    ## # A tibble: 134,203 x 23
    ##     Year Locationabbr Locationdesc Class Topic Question Response
    ##    <int> <chr>        <chr>        <chr> <chr> <chr>    <chr>   
    ##  1  2010 AL           AL - Jeffer… Heal… Over… How is … Excelle…
    ##  2  2010 AL           AL - Jeffer… Heal… Over… How is … Very go…
    ##  3  2010 AL           AL - Jeffer… Heal… Over… How is … Good    
    ##  4  2010 AL           AL - Jeffer… Heal… Over… How is … Fair    
    ##  5  2010 AL           AL - Jeffer… Heal… Over… How is … Poor    
    ##  6  2010 AL           AL - Jeffer… Heal… Fair… Health … Good or…
    ##  7  2010 AL           AL - Jeffer… Heal… Fair… Health … Fair or…
    ##  8  2010 AL           AL - Jeffer… Heal… Heal… Do you … Yes     
    ##  9  2010 AL           AL - Jeffer… Heal… Heal… Do you … No      
    ## 10  2010 AL           AL - Jeffer… Heal… Unde… Adults … Yes     
    ## # … with 134,193 more rows, and 16 more variables: Sample_Size <int>,
    ## #   Data_value <dbl>, Confidence_limit_Low <dbl>,
    ## #   Confidence_limit_High <dbl>, Display_order <int>,
    ## #   Data_value_unit <chr>, Data_value_type <chr>,
    ## #   Data_Value_Footnote_Symbol <chr>, Data_Value_Footnote <chr>,
    ## #   DataSource <chr>, ClassId <chr>, TopicId <chr>, LocationID <chr>,
    ## #   QuestionID <chr>, RESPID <chr>, GeoLocation <chr>
…
    ## Parsed with column specification:
    ## cols(
    ##   .default = col_double(),
    ##   day = col_character()
    ## )

    ## See spec(...) for full column specifications.

``` r
accel_data
```

    ## # A tibble: 35 x 1,443
    ##     week day_id day   activity.1 activity.2 activity.3 activity.4
    ##    <dbl>  <dbl> <chr>      <dbl>      <dbl>      <dbl>      <dbl>
    ##  1     1      1 Frid…       88.4       82.2       64.4       70.0
    ##  2     1      2 Mond…        1          1          1          1  
    ##  3     1      3 Satu…        1          1          1          1  
    ##  4     1      4 Sund…        1          1          1          1  
    ##  5     1      5 Thur…       47.4       48.8       46.9       35.8
    ##  6     1      6 Tues…       64.8       59.5       73.7       45.7
    ##  7     1      7 Wedn…       71.1      103.        68.5       45.4
    ##  8     2      8 Frid…      675        542       1010        779  
    ##  9     2      9 Mond…      291        335        393        335  
    ## 10     2     10 Satu…       64         11          1          1  
    ## # … with 25 more rows, and 1,436 more variables: activity.5 <dbl>,
    ## #   activity.6 <dbl>, activity.7 <dbl>, activity.8 <dbl>,
    ## #   activity.9 <dbl>, activity.10 <dbl>, activity.11 <dbl>,
    ## #   activity.12 <dbl>, activity.13 <dbl>, activity.14 <dbl>,
    ## #   activity.15 <dbl>, activity.16 <dbl>, activity.17 <dbl>,
    ## #   activity.18 <dbl>, activity.19 <dbl>, activity.20 <dbl>,
    ## #   activity.21 <dbl>, activity.22 <dbl>, activity.23 <dbl>,
    ## #   activity.24 <dbl>, activity.25 <dbl>, activity.26 <dbl>,
    ## #   activity.27 <dbl>, activity.28 <dbl>, activity.29 <dbl>,
…
accel_data_tidy
```

    ## # A tibble: 50,400 x 7
    ##     week day_id day    activity_min activity_count weekday weekend
    ##    <dbl>  <dbl> <chr>         <dbl>          <dbl> <lgl>   <lgl>  
    ##  1     1      1 Friday            1           88.4 TRUE    FALSE  
    ##  2     1      1 Friday            2           82.2 TRUE    FALSE  
    ##  3     1      1 Friday            3           64.4 TRUE    FALSE  
    ##  4     1      1 Friday            4           70.0 TRUE    FALSE  
    ##  5     1      1 Friday            5           75.0 TRUE    FALSE  
    ##  6     1      1 Friday            6           66.3 TRUE    FALSE  
    ##  7     1      1 Friday            7           53.8 TRUE    FALSE  
    ##  8     1      1 Friday            8           47.8 TRUE    FALSE  
    ##  9     1      1 Friday            9           55.5 TRUE    FALSE  
    ## 10     1      1 Friday           10           43.0 TRUE    FALSE  
    ## # … with 50,390 more rows
…
